[gd_scene load_steps=3 format=2]

[ext_resource path="res://Ball/T_Ball.png" type="Texture" id=1]

[sub_resource type="RectangleShape2D" id=1]

[node name="Ball" type="Area2D"]

[node name="CollisionShape2D" type="CollisionShape2D" parent="."]
shape = SubResource( 1 )

[node name="Sprite" type="Sprite" parent="."]
texture = ExtResource( 1 )
